4 Visualizing Data | S1Y Lab 1 Test
…
4.2.2 Column plot

If your data already have a column with the number you want to be the height of each bar or column, you can use geom_col() to plot it. Recall that the ratings data contains the variable viewers_7day which contains the number of viewers in the 7 days after each episode which we can plot as the height of each bar/column by setting y=viewers_7day. But what will we use to define where they are plotted on the x-axis?

After considering the values contained in the variable series and/or episode complete this statement:

Neither the values in series or episode can be used to define x=: TRUEFALSE

Explanation

select(ratings,series,episode)

## # A tibble: 94 x 2
##    series episode
##    <fct>  <fct>  
##  1 1      1      
##  2 1      2      
##  3 1      3      
##  4 1      4      
##  5 1      5      
##  6 1      6      
##  7 2      1      
##  8 2      2      
##  9 2      3      
## 10 2      4      
## # ... with 84 more rows
## # i Use `print(n = ...)` to see more rows
…
